{
    "development": {
        "dir": "/pos",
        "database_host": "127.0.0.1",
        "database_name": "pos",
        "database_user": "root",
        "database_pass": "Selva44!!@",
        "database_prefix": "",
        "http_port": ""
    },
    "production": {
        "dir": "",
        "database_host": "",
        "database_name": "",
        "database_user": "",
        "database_pass": "",
        "database_prefix": "",
        "http_port": ""
    },
    "system_name": "POS",
    "language": "pt",
    "env": "development",
    "version": "2.0.1",
    "last_update": "30/10/2019",
    "sync": {
        "server": "http://localhost/pos_server/ws",
        "token": "LI8WW1S6N1PA"
    }
}